%!PS-Adobe-3.0 EPSF-3.0
%%Creator: inkscape 0.46
%%Pages: 1
%%Orientation: Portrait
%%BoundingBox: 0 0 640 347
%%HiResBoundingBox: 0 0 640 347
%%EndComments
%%BeginSetup
%%EndSetup
%%Page: 1 1
0 347 translate
0.8 -0.8 scale
0 0 0 setrgbcolor
[] 0 setdash
1 setlinewidth
0 setlinejoin
0 setlinecap
gsave [1 0 0 1 0 0] concat
gsave
0 0 0 setrgbcolor
newpath
58.424039 218.04815 moveto
55.208885 216.61669 lineto
54.691769 214.30377 lineto
54.407355 213.03166 54.054174 207.82731 53.906923 202.73854 curveto
53.639194 193.48625 lineto
55.389194 193.48854 lineto
57.139194 193.49084 lineto
57.139194 203.83585 lineto
57.139194 214.18086 lineto
58.967935 215.83585 lineto
60.796675 217.49084 lineto
63.944882 217.49084 lineto
67.093088 217.49084 lineto
68.686365 215.05919 lineto
70.279642 212.62754 lineto
69.959418 203.05695 lineto
69.639194 193.48636 lineto
71.480219 193.4886 lineto
73.321244 193.49084 lineto
72.980219 203.96535 lineto
72.639194 214.43987 lineto
70.639194 216.39512 lineto
68.639194 218.35037 lineto
65.139194 218.91498 lineto
61.639194 219.4796 lineto
58.424039 218.04815 lineto
closepath
233.13919 218.60017 moveto
230.63919 217.90885 lineto
230.2939 215.44985 lineto
229.94861 212.99084 lineto
232.35835 215.24084 lineto
234.76809 217.49084 lineto
237.73113 217.49084 lineto
240.69418 217.49084 lineto
242.91668 215.93414 lineto
245.13919 214.37743 lineto
245.13919 212.05658 lineto
245.13919 209.73573 lineto
243.88919 208.74424 lineto
243.20169 208.19893 240.25411 207.19352 237.339 206.51002 curveto
232.03881 205.26728 lineto
230.44715 202.8381 lineto
228.85549 200.40891 lineto
229.99958 197.89792 lineto
231.14366 195.38692 lineto
234.76835 193.87243 lineto
238.39304 192.35793 lineto
242.26612 193.01228 lineto
246.13919 193.66664 lineto
246.13919 195.73373 lineto
246.13919 197.80082 lineto
244.31045 196.14583 lineto
242.48171 194.49084 lineto
238.88188 194.49084 lineto
235.28205 194.49084 lineto
233.71062 196.06227 lineto
232.13919 197.6337 lineto
232.13919 199.43982 lineto
232.13919 201.24595 lineto
233.38919 202.27891 lineto
234.07669 202.84704 236.43919 203.62765 238.63919 204.01359 curveto
240.83919 204.39954 243.65169 205.35019 244.88919 206.12613 curveto
247.13919 207.53695 lineto
247.13919 210.57963 lineto
247.13919 213.62232 lineto
246.12742 215.51283 lineto
245.11566 217.40333 lineto
241.37742 218.44151 lineto
237.24577 219.58895 236.74948 219.5985 233.13919 218.60017 curveto
closepath
87.139194 205.99084 moveto
87.139194 193.49084 lineto
89.440762 193.49084 lineto
91.74233 193.49084 lineto
98.08421 202.49084 lineto
104.42608 211.49084 lineto
105.38213 211.49084 lineto
106.33819 211.49084 lineto
105.98869 202.49034 lineto
105.63919 193.48983 lineto
106.63919 193.48851 lineto
107.63919 193.4872 lineto
107.33204 205.98902 lineto
107.02488 218.49084 lineto
106.23177 218.49084 lineto
105.79556 218.49084 102.10878 213.78785 98.03893 208.03974 curveto
93.969074 202.29164 90.272742 197.56664 89.824856 197.53974 curveto
89.010517 197.49084 lineto
89.324856 207.99295 lineto
89.639194 218.49506 lineto
88.389194 218.49295 lineto
87.139194 218.49084 lineto
87.139194 205.99084 lineto
closepath
122.13919 205.99084 moveto
122.13919 193.49084 lineto
123.58204 193.49084 lineto
125.02488 193.49084 lineto
125.33204 205.99266 lineto
125.63919 218.49448 lineto
123.88919 218.49266 lineto
122.13919 218.49084 lineto
122.13919 205.99084 lineto
closepath
146.77092 217.70398 moveto
146.46756 217.21314 144.65328 212.48516 142.73917 207.19737 curveto
140.82507 201.90957 138.7662 196.66241 138.1639 195.53702 curveto
137.06882 193.49084 lineto
138.88708 193.49084 lineto
140.70533 193.49084 lineto
144.29276 203.74084 lineto
147.88019 213.99084 lineto
148.63323 213.99084 lineto
149.38628 213.99084 lineto
152.51273 203.74963 lineto
155.63919 193.50843 lineto
156.71002 193.49963 lineto
157.78085 193.49084 lineto
153.61032 205.69074 lineto
149.43979 217.89064 lineto
148.38113 218.24353 lineto
147.32247 218.59641 lineto
146.77092 217.70398 lineto
closepath
170.13919 205.99084 moveto
170.13919 193.49084 lineto
178.63919 193.49084 lineto
187.13919 193.49084 lineto
187.13919 195.11328 lineto
187.13919 196.73573 lineto
185.72037 195.55821 lineto
184.30154 194.38069 lineto
178.97037 194.68577 lineto
173.63919 194.99084 lineto
173.63919 199.49084 lineto
173.63919 203.99084 lineto
177.89048 203.99084 lineto
182.14178 203.99084 lineto
182.14178 204.99084 lineto
182.14178 205.99084 lineto
177.89048 205.99084 lineto
173.63919 205.99084 lineto
173.63919 211.49084 lineto
173.63919 216.99084 lineto
177.99065 217.3033 lineto
182.34211 217.61575 lineto
185.24065 216.60532 lineto
188.13919 215.59488 lineto
188.13919 217.04286 lineto
188.13919 218.49084 lineto
179.13919 218.49084 lineto
170.13919 218.49084 lineto
170.13919 205.99084 lineto
closepath
201.13919 205.99084 moveto
201.13919 193.49084 lineto
207.44806 193.49084 lineto
213.75693 193.49084 lineto
215.52677 194.78498 lineto
217.29661 196.07912 lineto
216.9679 199.53498 lineto
216.63919 202.99084 lineto
213.36832 204.62464 lineto
210.09745 206.25844 lineto
213.9228 211.12464 lineto
216.02674 213.80105 218.08768 216.55334 218.50268 217.24084 curveto
219.25722 218.49084 lineto
217.44821 218.46424 lineto
215.63919 218.43764 lineto
211.32082 212.36594 lineto
208.94572 209.02651 207.14572 206.22598 207.32082 206.14254 curveto
207.49592 206.05911 208.98919 205.30165 210.63919 204.4593 curveto
213.63919 202.92775 lineto
213.94957 200.27191 lineto
214.25995 197.61607 lineto
211.75739 195.97633 lineto
209.25482 194.33659 lineto
206.94701 194.66371 lineto
204.63919 194.99084 lineto
204.63919 206.74197 lineto
204.63919 218.4931 lineto
202.88919 218.49197 lineto
201.13919 218.49084 lineto
201.13919 205.99084 lineto
closepath
259.63919 205.99084 moveto
259.63919 193.49084 lineto
261.38919 193.49084 lineto
263.13919 193.49084 lineto
263.13919 205.99084 lineto
263.13919 218.49084 lineto
261.38919 218.49084 lineto
259.63919 218.49084 lineto
259.63919 205.99084 lineto
closepath
282.13919 206.49084 moveto
282.13919 194.49084 lineto
279.71062 194.49084 lineto
277.28205 194.49084 lineto
275.71062 196.06227 lineto
274.13919 197.6337 lineto
274.13919 195.56227 lineto
274.13919 193.49084 lineto
284.13919 193.49084 lineto
294.13919 193.49084 lineto
294.13919 195.02602 lineto
294.13919 196.56121 lineto
292.20493 195.52602 lineto
291.14109 194.95667 289.34109 194.49084 288.20493 194.49084 curveto
286.13919 194.49084 lineto
286.13919 206.49084 lineto
286.13919 218.49084 lineto
284.13919 218.49084 lineto
282.13919 218.49084 lineto
282.13919 206.49084 lineto
closepath
305.63919 205.99084 moveto
305.63919 193.49084 lineto
314.38919 193.49084 lineto
323.13919 193.49084 lineto
323.13919 195.56227 lineto
323.13919 197.6337 lineto
321.56776 196.06227 lineto
319.99633 194.49084 lineto
314.56776 194.49084 lineto
309.13919 194.49084 lineto
309.13919 199.59153 lineto
309.13919 204.69223 lineto
313.63919 204.33433 lineto
318.13919 203.97643 lineto
318.13919 205.1108 lineto
318.13919 206.24517 lineto
313.58522 205.73187 lineto
309.03126 205.21857 lineto
309.33522 211.1047 lineto
309.63919 216.99084 lineto
313.91793 217.29974 lineto
318.19668 217.60864 lineto
321.16793 216.12639 lineto
324.13919 214.64413 lineto
324.13919 216.56748 lineto
324.13919 218.49084 lineto
314.88919 218.49084 lineto
305.63919 218.49084 lineto
305.63919 205.99084 lineto
closepath
351.63919 205.99084 moveto
351.63919 193.49084 lineto
357.13919 193.49642 lineto
362.63919 193.50199 lineto
366.3437 194.53086 lineto
370.04822 195.55973 lineto
372.0937 198.16014 lineto
374.13919 200.76056 lineto
374.13919 205.49084 lineto
374.13919 210.22112 lineto
371.97129 212.97716 lineto
369.80339 215.7332 lineto
366.50341 217.11202 lineto
363.20343 218.49084 lineto
357.42131 218.49084 lineto
351.63919 218.49084 lineto
351.63919 205.99084 lineto
closepath
366.76081 215.00311 moveto
369.30624 213.33528 lineto
370.71415 209.96569 lineto
372.12205 206.5961 lineto
370.88062 202.88898 lineto
369.63919 199.18186 lineto
367.09708 197.29631 lineto
364.55497 195.41077 lineto
360.09708 195.2008 lineto
355.63919 194.99084 lineto
355.35082 204.91966 lineto
355.06245 214.84848 lineto
355.61903 216.29889 lineto
356.1756 217.74929 lineto
360.19549 217.21011 lineto
364.21539 216.67093 lineto
366.76081 215.00311 lineto
closepath
386.94634 205.99266 moveto
387.2535 193.49084 lineto
395.69634 193.49084 lineto
404.13919 193.49084 lineto
404.13919 195.11328 lineto
404.13919 196.73573 lineto
402.72037 195.55821 lineto
401.30154 194.38069 lineto
395.97037 194.68577 lineto
390.63919 194.99084 lineto
390.33009 199.84623 lineto
390.021 204.70163 lineto
394.58009 204.33903 lineto
399.13919 203.97643 lineto
399.14048 204.98363 lineto
399.14178 205.99084 lineto
394.89048 205.99084 lineto
390.63919 205.99084 lineto
390.63919 211.49084 lineto
390.63919 216.99084 lineto
396.98902 216.88832 lineto
403.33886 216.7858 lineto
404.22371 215.38832 lineto
405.10856 213.99084 lineto
405.12388 216.24084 lineto
405.13919 218.49084 lineto
395.88919 218.49266 lineto
386.63919 218.49448 lineto
386.94634 205.99266 lineto
closepath
314.57628 186.67074 moveto
316.19168 184.92179 317.91668 183.49084 318.40961 183.49084 curveto
319.30586 183.49084 lineto
318.95543 184.54211 lineto
318.7627 185.1203 317.0377 186.55126 315.1221 187.72201 curveto
311.63919 189.85064 lineto
314.57628 186.67074 lineto
closepath
fill
grestore
gsave
0 0.36470589 0.65882355 setrgbcolor
newpath
233.46233 371.38403 moveto
232.98605 367.94031 232.16358 357.17303 231.63462 347.45675 curveto
230.67291 329.79078 lineto
242.95184 327.94268 lineto
270.08658 323.85861 302.24642 313.51136 321.89744 302.54232 curveto
334.36086 295.58533 352.17278 281.20645 357.76598 273.58697 curveto
360.54615 269.79959 364.66406 262.8018 366.91685 258.03631 curveto
371.01281 249.37179 lineto
394.80677 249.7744 lineto
408.13527 249.99991 418.60073 250.77376 418.60073 251.53377 curveto
418.60073 257.03725 414.3572 270.30917 409.4539 280.14103 curveto
386.22845 326.71174 338.52293 357.29496 266.95238 371.49648 curveto
254.86447 373.89505 242.579 376.25978 239.65136 376.75144 curveto
234.32835 377.64538 lineto
233.46233 371.38403 lineto
closepath
fill
grestore
gsave
0 0.36470589 0.65882355 setrgbcolor
newpath
386.3663 161.31713 moveto
386.3663 160.83579 389.02189 155.33758 392.2676 149.0989 curveto
402.23544 129.93946 419.69326 111.21204 439.11355 98.84611 curveto
466.51133 81.40051 505.30259 67.38067 545.34066 60.45379 curveto
566.21814 56.84182 564.56025 55.86548 565.70889 72.44872 curveto
566.25313 80.30586 567.08727 90.79103 567.56253 95.7491 curveto
568.42671 104.76375 lineto
559.81408 106.42051 lineto
521.50312 113.79004 500.85417 120.14133 479.51386 131.11953 curveto
465.45911 138.34983 447.2291 151.93949 443.07024 158.28671 curveto
440.51124 162.19231 lineto
413.43873 162.19231 lineto
398.54891 162.19231 386.3663 161.79848 386.3663 161.31714 curveto
386.3663 161.31713 lineto
closepath
fill
grestore
gsave
0 0.36078432 0.65490198 setrgbcolor
newpath
434.71645 219.45935 moveto
432.96645 218.95116 lineto
432.99686 214.77449 lineto
433.02727 210.59781 lineto
434.17427 212.59781 lineto
434.80512 213.69781 436.02893 215.146 436.89386 215.81601 curveto
438.46645 217.0342 lineto
441.52532 217.06601 lineto
444.58419 217.09781 lineto
446.52532 215.65638 lineto
448.46645 214.21495 lineto
447.36368 212.41623 lineto
446.2609 210.61751 lineto
440.04581 208.24427 lineto
433.83072 205.87102 lineto
432.87312 203.35233 lineto
431.91552 200.83365 lineto
432.50009 198.99181 lineto
433.08467 197.14998 lineto
435.66042 195.1239 lineto
438.23617 193.09781 lineto
443.51952 193.09781 lineto
446.42537 193.09781 449.51468 193.37095 450.38466 193.7048 curveto
451.96645 194.31179 lineto
451.96645 197.83966 lineto
451.96645 201.36753 lineto
449.89387 198.73267 lineto
447.82129 196.09781 lineto
444.01631 196.09781 lineto
440.21134 196.09781 lineto
438.97702 197.58508 lineto
437.7427 199.07234 lineto
438.28273 200.47964 lineto
438.82276 201.88693 lineto
445.40489 204.07732 lineto
451.98701 206.26771 lineto
452.97673 208.11702 lineto
453.52108 209.13414 453.96645 211.04247 453.96645 212.35775 curveto
453.96645 214.74918 lineto
451.43414 217.12816 lineto
448.90184 219.50714 lineto
442.68414 219.73734 lineto
439.26441 219.86394 435.67895 219.73885 434.71645 219.45935 curveto
closepath
474.46645 219.37988 moveto
470.46645 219.01136 lineto
470.77883 208.05459 lineto
471.09122 197.09781 lineto
468.07852 197.09781 lineto
465.06583 197.09781 lineto
464.04655 198.84781 lineto
463.02727 200.59781 lineto
462.99686 197.34781 lineto
462.96645 194.09781 lineto
473.96645 194.09781 lineto
484.96645 194.09781 lineto
484.90306 197.84781 lineto
484.83968 201.59781 lineto
483.93529 199.34781 lineto
483.0309 197.09781 lineto
479.99867 197.09781 lineto
476.96645 197.09781 lineto
476.96645 207.39781 lineto
476.96645 217.69781 lineto
478.16645 218.89781 lineto
478.82645 219.55781 479.16395 220.01919 478.91645 219.9231 curveto
478.66895 219.82701 476.66645 219.58256 474.46645 219.37988 curveto
closepath
499.46645 219.19762 moveto
495.46645 218.59781 lineto
495.46645 206.34673 lineto
495.46645 194.09565 lineto
503.63466 194.09673 lineto
508.12718 194.09732 512.54915 194.38418 513.46127 194.73419 curveto
515.11966 195.37058 lineto
516.04469 197.80359 lineto
516.96972 200.23661 lineto
516.35091 202.70212 lineto
515.73211 205.16763 lineto
512.81288 206.67723 lineto
509.89364 208.18682 lineto
512.09093 211.39232 lineto
513.29944 213.15534 515.31865 215.72429 516.57806 217.1011 curveto
518.8679 219.60438 lineto
514.65136 219.26903 lineto
510.43482 218.93367 lineto
506.72464 213.26574 lineto
503.01446 207.59781 lineto
505.74046 206.71354 lineto
507.23975 206.22719 509.02895 205.38459 509.71645 204.84109 curveto
510.96645 203.85292 lineto
510.96645 202.04679 lineto
510.96645 200.24067 lineto
509.39502 198.66924 lineto
507.82359 197.09781 lineto
504.89502 197.09781 lineto
501.96645 197.09781 lineto
501.96645 207.39781 lineto
501.96645 217.69781 lineto
503.16645 218.89781 lineto
503.82645 219.55781 504.16395 220.03022 503.91645 219.94762 curveto
503.66895 219.86501 501.66645 219.52751 499.46645 219.19762 curveto
closepath
542.05068 218.49632 moveto
542.96562 217.39388 lineto
541.85014 214.19401 lineto
540.73466 210.99414 lineto
536.60056 211.29598 lineto
532.46645 211.59781 lineto
531.54008 215.34781 lineto
530.61372 219.09781 lineto
527.66764 219.09781 lineto
524.72156 219.09781 lineto
525.68465 217.84781 lineto
526.21434 217.16031 528.5599 211.7828 530.897 205.8978 curveto
535.14627 195.19779 lineto
534.59891 194.31213 lineto
534.05154 193.42648 lineto
537.72917 194.02426 lineto
541.40679 194.62204 lineto
544.93662 205.60992 lineto
546.87803 211.65326 548.80257 217.11511 549.21339 217.74736 curveto
549.96032 218.89691 lineto
545.54803 219.24783 lineto
541.13574 219.59876 lineto
542.05068 218.49632 lineto
closepath
539.89037 207.34781 moveto
539.84853 206.93531 539.2258 205.02281 538.50654 203.09781 curveto
537.19878 199.59781 lineto
536.05294 202.59781 lineto
535.42274 204.24781 534.70958 206.16031 534.46816 206.84781 curveto
534.02922 208.09781 lineto
536.99783 208.09781 lineto
539.96645 208.09781 lineto
539.89037 207.34781 lineto
closepath
559.71645 219.01771 moveto
557.96645 217.99843 lineto
557.96645 214.62504 lineto
557.96645 211.25166 lineto
560.88953 214.17473 lineto
563.8126 217.09781 lineto
567.18953 217.09781 lineto
570.56645 217.09781 lineto
571.76645 215.89781 lineto
572.42645 215.23781 572.96645 213.92715 572.96645 212.98523 curveto
572.96645 211.27266 lineto
566.05251 208.6307 lineto
559.13857 205.98873 lineto
558.55251 204.46148 lineto
558.23018 203.6215 557.96645 201.69078 557.96645 200.17101 curveto
557.96645 197.40779 lineto
559.95632 195.60698 lineto
561.94619 193.80617 lineto
566.90209 193.32997 lineto
571.85799 192.85377 lineto
574.41222 193.49484 lineto
576.96645 194.13591 lineto
576.96645 197.75172 lineto
576.96645 201.36753 lineto
574.89387 198.73267 lineto
572.82129 196.09781 lineto
569.01631 196.09781 lineto
565.21134 196.09781 lineto
563.99435 197.56419 lineto
562.77737 199.03057 lineto
563.20367 200.31419 lineto
563.62997 201.59781 lineto
570.53083 204.11687 lineto
577.4317 206.63594 lineto
578.34273 209.22644 lineto
579.25376 211.81695 lineto
578.57451 214.52328 lineto
577.89527 217.22961 lineto
574.46298 218.66371 lineto
571.03069 220.09781 lineto
566.24857 220.0674 lineto
561.46645 220.03699 lineto
559.71645 219.01771 lineto
closepath
627.38641 218.21213 moveto
624.30638 216.33393 lineto
622.63641 212.81474 lineto
620.96645 209.29555 lineto
620.96645 206.66456 lineto
620.96645 203.12735 623.21959 198.01719 625.78785 195.72955 curveto
627.88529 193.86128 lineto
632.4093 193.35136 lineto
636.93331 192.84144 lineto
639.94104 194.08728 lineto
642.94876 195.33312 lineto
644.95761 198.5835 lineto
646.96645 201.83388 lineto
646.96645 206.56155 lineto
646.96645 211.28923 lineto
645.26039 214.17736 lineto
643.55432 217.06549 lineto
640.35926 218.58165 lineto
637.16419 220.09781 lineto
633.81532 220.09407 lineto
630.46645 220.09033 lineto
627.38641 218.21213 lineto
closepath
639.53874 214.01794 moveto
641.421 211.93806 lineto
641.41989 208.26794 lineto
641.41879 204.59781 lineto
640.10683 201.4336 lineto
638.79488 198.26938 lineto
635.97139 197.09986 lineto
633.14791 195.93033 lineto
631.0801 197.03699 lineto
629.9428 197.64565 628.55197 199.00375 627.98937 200.05499 curveto
626.96645 201.96633 lineto
626.96645 205.58173 lineto
626.96645 209.19713 lineto
628.44541 212.05712 lineto
630.08103 215.22006 631.21984 215.90199 635.06146 216.01886 curveto
637.65647 216.09781 lineto
639.53874 214.01794 lineto
closepath
661.34934 217.75073 moveto
658.6207 215.40366 lineto
658.04358 204.50073 lineto
657.46645 193.59781 lineto
660.96645 193.59781 lineto
664.46645 193.59781 lineto
664.12996 203.6899 lineto
663.79348 213.78198 lineto
665.45139 215.4399 lineto
667.10931 217.09781 lineto
669.46645 217.09781 lineto
671.82359 217.09781 lineto
673.39502 215.52638 lineto
674.96645 213.95495 lineto
674.96645 204.72638 lineto
674.96645 195.49781 lineto
673.99069 194.52205 lineto
673.01494 193.5463 lineto
677.24069 193.57205 lineto
681.46645 193.59781 lineto
680.88932 204.50073 lineto
680.3122 215.40366 lineto
677.58356 217.75073 lineto
674.85492 220.09781 lineto
669.46645 220.09781 lineto
664.07798 220.09781 lineto
661.34934 217.75073 lineto
closepath
697.46645 219.19762 moveto
693.46645 218.59781 lineto
693.46645 206.31252 lineto
693.46645 194.02722 lineto
702.36196 194.31252 lineto
711.25747 194.59781 lineto
713.25966 197.28412 lineto
715.26185 199.97043 lineto
713.99283 203.03412 lineto
713.29487 204.71915 712.41441 206.09781 712.03626 206.09781 curveto
711.65811 206.09781 710.54856 206.68289 709.57061 207.39799 curveto
707.79251 208.69817 lineto
711.90273 213.89799 lineto
716.01296 219.09781 lineto
712.2397 219.08447 lineto
708.46645 219.07112 lineto
704.7423 213.33447 lineto
701.01816 207.59781 lineto
704.0423 206.57593 lineto
707.06644 205.55405 lineto
708.00113 204.07593 lineto
709.34878 201.94475 709.1819 200.45612 707.39502 198.66924 curveto
705.82359 197.09781 lineto
702.89502 197.09781 lineto
699.96645 197.09781 lineto
699.96645 207.39781 lineto
699.96645 217.69781 lineto
701.16645 218.89781 lineto
701.82645 219.55781 702.16395 220.03022 701.91645 219.94762 curveto
701.66895 219.86501 699.66645 219.52751 697.46645 219.19762 curveto
closepath
730.10993 217.56508 moveto
727.09995 215.03236 lineto
725.93414 211.4999 lineto
724.76832 207.96745 lineto
725.44013 204.38643 lineto
725.80962 202.41687 726.82102 199.7232 727.68769 198.4005 curveto
729.26345 195.99559 lineto
732.06529 194.5467 lineto
734.86713 193.09781 lineto
739.66679 193.11312 lineto
744.46645 193.12844 lineto
745.5592 193.86312 lineto
746.65195 194.59781 lineto
747.32456 198.04962 lineto
747.99717 201.50143 lineto
745.17709 198.79962 lineto
742.35701 196.09781 lineto
739.41173 196.12961 lineto
736.46645 196.16142 lineto
734.87979 197.37961 lineto
734.00713 198.04962 732.76963 199.58073 732.12979 200.78207 curveto
730.96645 202.96633 lineto
730.97019 206.28207 lineto
730.97393 209.59781 lineto
732.86837 212.70455 lineto
734.76281 215.81129 lineto
736.65193 216.30531 lineto
738.54104 216.79932 lineto
740.75375 215.98079 lineto
742.96645 215.16226 lineto
742.96645 212.33003 lineto
742.96645 209.49781 lineto
742.01645 208.54781 lineto
741.06645 207.59781 lineto
745.96645 207.59781 lineto
750.86645 207.59781 lineto
749.91645 208.54781 lineto
748.96645 209.49781 lineto
748.96645 214.23879 lineto
748.96645 218.97978 lineto
747.95939 219.60218 lineto
746.95232 220.22457 lineto
746.35791 218.67556 lineto
745.7635 217.12655 lineto
743.64247 218.61218 lineto
741.52144 220.09781 lineto
737.32067 220.09781 lineto
733.1199 220.09781 lineto
730.10993 217.56508 lineto
closepath
589.46645 206.34781 moveto
589.46645 193.59781 lineto
597.96645 193.92507 lineto
606.46645 194.25233 lineto
608.21645 195.83006 lineto
609.96645 197.40779 lineto
609.96645 200.21761 lineto
609.96645 203.02744 lineto
607.8565 204.15665 lineto
605.74655 205.28587 lineto
608.8565 207.17714 lineto
611.96645 209.06841 lineto
611.96645 212.01053 lineto
611.96645 214.95265 lineto
609.33159 217.02523 lineto
606.69673 219.09781 lineto
598.08159 219.09781 lineto
589.46645 219.09781 lineto
589.46645 206.34781 lineto
closepath
605.64668 213.46404 moveto
607.05605 211.33027 lineto
605.43982 209.71404 lineto
603.82359 208.09781 lineto
599.89502 208.09781 lineto
595.96645 208.09781 lineto
595.96645 212.15531 lineto
595.96645 216.21281 lineto
600.10188 215.90531 lineto
604.23732 215.59781 lineto
605.64668 213.46404 lineto
closepath
603.9495 202.51324 moveto
605.43255 201.06028 lineto
604.34822 199.32905 lineto
603.2639 197.59781 lineto
599.61517 197.28744 lineto
595.96645 196.97708 lineto
595.96645 200.37078 lineto
595.96645 203.76448 lineto
596.68634 204.48436 lineto
597.40622 205.20425 lineto
599.93634 204.58523 lineto
601.3279 204.24476 603.13382 203.31237 603.9495 202.51324 curveto
closepath
fill
grestore
grestore
showpage
%%EOF
